<?xml version="1.0" encoding="utf-8"?>
<!-- Generator: Adobe Illustrator 18.0.0, SVG Export Plug-In . SVG Version: 6.00 Build 0)  -->
<!DOCTYPE svg PUBLIC "-//W3C//DTD SVG 1.1//EN" "http://www.w3.org/Graphics/SVG/1.1/DTD/svg11.dtd">
<svg version="1.1" id="Слой_1" xmlns="http://www.w3.org/2000/svg" xmlns:xlink="http://www.w3.org/1999/xlink" x="0px" y="0px"
	 width="21px" height="21px" viewBox="0 0 21 21" enable-background="new 0 0 21 21" xml:space="preserve">
<path id="XMLID_1934_" fill="none" stroke="#000000" stroke-width="2" stroke-miterlimit="10" d="M19.8,10.5c0,5-4.1,9.1-9.1,9.1
	s-9.1-4.1-9.1-9.1s4.1-9.1,9.1-9.1c2.5,0,4.8,1,6.4,2.6c0.6,0.6,1,1.2,1.4,1.9c0.2,0.4,0.4,0.8,0.6,1.2c0.1,0.2,0.2,0.4,0.2,0.7
	C19.7,8.6,19.8,9.6,19.8,10.5z"/>
<line id="XMLID_1_" fill="none" stroke="#000000" stroke-width="2" stroke-miterlimit="10" x1="11" y1="5" x2="11" y2="7"/>
<line id="XMLID_2_" fill="none" stroke="#000000" stroke-width="2" stroke-miterlimit="10" x1="11" y1="9" x2="11" y2="16"/>
</svg>
