<?xml version="1.0" encoding="utf-8"?>
<!-- Generator: Adobe Illustrator 18.0.0, SVG Export Plug-In . SVG Version: 6.00 Build 0)  -->
<!DOCTYPE svg PUBLIC "-//W3C//DTD SVG 1.1//EN" "http://www.w3.org/Graphics/SVG/1.1/DTD/svg11.dtd">
<svg version="1.1" id="Слой_1" xmlns="http://www.w3.org/2000/svg" xmlns:xlink="http://www.w3.org/1999/xlink" x="0px" y="0px"
	 width="23px" height="8px" viewBox="0 0 23 8" enable-background="new 0 0 23 8" xml:space="preserve">
<polyline fill="none" stroke="#89d316" stroke-miterlimit="10" points="12.2,1.2 6.6,6.8 1,1.2 "/>
</svg>
